\relax 
\@writefile{toc}{\contentsline {chapter}{\numberline {1}What is Aprx?}{1}}
\@writefile{lof}{\addvspace {10\p@ }}
\@writefile{lot}{\addvspace {10\p@ }}
\@writefile{lol}{\addvspace {10\p@ }}
\newlabel{chap:intro}{{1}{1}}
\@writefile{toc}{\contentsline {chapter}{\numberline {2}Configuration Examples}{3}}
\@writefile{lof}{\addvspace {10\p@ }}
\@writefile{lot}{\addvspace {10\p@ }}
\@writefile{lol}{\addvspace {10\p@ }}
\newlabel{chap:configex}{{2}{3}}
\@writefile{toc}{\contentsline {section}{\numberline {2.1}Minimal Configuration of Rx-only I-gate}{3}}
\@writefile{toc}{\contentsline {section}{\numberline {2.2}Minimal Configuration APRS Digipeater}{4}}
\@writefile{toc}{\contentsline {section}{\numberline {2.3}Controlling New-n-paradigm}{5}}
\@writefile{toc}{\contentsline {section}{\numberline {2.4}Filtering at APRS Digipeater}{6}}
\@writefile{toc}{\contentsline {section}{\numberline {2.5}Combined APRS Digipeater and Rx-iGate}{6}}
\@writefile{toc}{\contentsline {section}{\numberline {2.6}Doing Transmit-iGate}{7}}
\@writefile{toc}{\contentsline {section}{\numberline {2.7}Digipeater and Transmit-iGate}{8}}
